<?xml version="1.0" encoding="UTF-8" standalone="no"?>
<!-- Created with Inkscape (http://www.inkscape.org/) -->

<svg
   xmlns:a="http://ns.adobe.com/AdobeSVGViewerExtensions/3.0/"
   xmlns:dc="http://purl.org/dc/elements/1.1/"
   xmlns:cc="http://creativecommons.org/ns#"
   xmlns:rdf="http://www.w3.org/1999/02/22-rdf-syntax-ns#"
   xmlns:svg="http://www.w3.org/2000/svg"
   xmlns="http://www.w3.org/2000/svg"
   xmlns:xlink="http://www.w3.org/1999/xlink"
   xmlns:sodipodi="http://sodipodi.sourceforge.net/DTD/sodipodi-0.dtd"
   xmlns:inkscape="http://www.inkscape.org/namespaces/inkscape"
   height="127"
   id="svg1"
   inkscape:version="0.48.4 r9939"
   sodipodi:docname="icon.svg"
   sodipodi:version="0.32"
   width="127"
   version="1.0"
   inkscape:export-filename="/home/sorin/HomeBräu/app/AutoBrewer/images/icon_144.png"
   inkscape:export-xdpi="102.05"
   inkscape:export-ydpi="102.05">
  <metadata
     id="metadata1395">
    <rdf:RDF>
      <cc:Work
         rdf:about="">
        <dc:title></dc:title>
        <dc:description />
        <dc:subject>
          <rdf:Bag>
            <rdf:li>hash</rdf:li>
            <rdf:li />
            <rdf:li>food</rdf:li>
            <rdf:li>beverage</rdf:li>
            <rdf:li>alcohol</rdf:li>
          </rdf:Bag>
        </dc:subject>
        <dc:publisher>
          <cc:Agent
             rdf:about="http://www.openclipart.org">
            <dc:title>Nicu Buculei</dc:title>
          </cc:Agent>
        </dc:publisher>
        <dc:creator>
          <cc:Agent>
            <dc:title>Nicu Buculei</dc:title>
          </cc:Agent>
        </dc:creator>
        <dc:rights>
          <cc:Agent>
            <dc:title>Nicu Buculei</dc:title>
          </cc:Agent>
        </dc:rights>
        <dc:date />
        <dc:format>image/svg+xml</dc:format>
        <dc:type
           rdf:resource="http://purl.org/dc/dcmitype/StillImage" />
        <cc:license
           rdf:resource="http://web.resource.org/cc/PublicDomain" />
        <dc:language>en</dc:language>
      </cc:Work>
      <cc:License
         rdf:about="http://web.resource.org/cc/PublicDomain">
        <cc:permits
           rdf:resource="http://web.resource.org/cc/Reproduction" />
        <cc:permits
           rdf:resource="http://web.resource.org/cc/Distribution" />
        <cc:permits
           rdf:resource="http://web.resource.org/cc/DerivativeWorks" />
      </cc:License>
    </rdf:RDF>
  </metadata>
  <defs
     id="defs3">
    <linearGradient
       id="linearGradient835">
      <stop
         id="stop836"
         offset="0.0000000"
         style="stop-color:#ffffff;stop-opacity:0.50000000;" />
      <stop
         id="stop837"
         offset="1.0000000"
         style="stop-color:#ffffff;stop-opacity:0.10000000;" />
    </linearGradient>
    <linearGradient
       id="linearGradient838"
       x1="59.09943"
       x2="95.688896"
       xlink:href="#linearGradient835"
       y1="33.609943"
       y2="62.299416"
       gradientTransform="matrix(0.784789,0,0,1.274228,-25.69061,-8.563536)"
       gradientUnits="userSpaceOnUse" />
    <linearGradient
       id="linearGradient840"
       x1="17.402493"
       x2="28.178926"
       xlink:href="#linearGradient835"
       y1="208.04343"
       y2="241.09116"
       gradientTransform="matrix(1.977734,0,0,0.505629,-27.41512,-11.197637)"
       gradientUnits="userSpaceOnUse" />
    <linearGradient
       id="linearGradient842"
       x1="70.06295"
       x2="87.074257"
       xlink:href="#linearGradient835"
       y1="55.987648"
       y2="80.90905"
       gradientTransform="matrix(1.546863,0,0,0.64647,-27.41512,-11.197637)"
       gradientUnits="userSpaceOnUse" />
    <radialGradient
       id="XMLID_1_"
       cx="75.483902"
       cy="140.627"
       r="36.8578"
       fx="75.483902"
       fy="140.627"
       gradientUnits="userSpaceOnUse">
      <stop
         offset="0"
         style="stop-color:#FFBB9D"
         id="stop13" />
      <stop
         offset="1"
         style="stop-color:#FF0000"
         id="stop15" />
    </radialGradient>
    <radialGradient
       id="XMLID_9_"
       cx="114.7007"
       cy="135.1162"
       r="61.621799"
       fx="114.7007"
       fy="135.1162"
       gradientTransform="translate(-2.9487,-0.3809)"
       gradientUnits="userSpaceOnUse">
      <stop
         offset="0"
         style="stop-color:#FFBB9D"
         id="stop99" />
      <stop
         offset="1"
         style="stop-color:#FF0000"
         id="stop101" />
    </radialGradient>
    <radialGradient
       id="XMLID_10_"
       cx="117.6069"
       cy="121.6768"
       r="85.3349"
       fx="117.6069"
       fy="121.6768"
       gradientTransform="matrix(0.9747,0.0253,0.0253,0.9747,-2.5816,-0.7475)"
       gradientUnits="userSpaceOnUse">
      <stop
         offset="0"
         style="stop-color:#FFDE9A"
         id="stop110" />
      <stop
         offset="0.7135"
         style="stop-color:#FF5B00"
         id="stop112" />
    </radialGradient>
    <radialGradient
       id="XMLID_11_"
       cx="117.2114"
       cy="125.4971"
       r="85.350601"
       fx="117.2114"
       fy="125.4971"
       gradientTransform="matrix(0.9747,0.0253,0.0253,0.9747,-2.5816,-0.7475)"
       gradientUnits="userSpaceOnUse">
      <stop
         offset="0"
         style="stop-color:#FFDE9A"
         id="stop119" />
      <stop
         offset="0.132"
         style="stop-color:#FFD994"
         id="stop121" />
      <stop
         offset="0.3006"
         style="stop-color:#FFCC85"
         id="stop123" />
      <stop
         offset="0.4891"
         style="stop-color:#FFB56A"
         id="stop125" />
      <stop
         offset="0.6921"
         style="stop-color:#FF9646"
         id="stop127" />
      <stop
         offset="0.9045"
         style="stop-color:#FF6F17"
         id="stop129" />
      <stop
         offset="1"
         style="stop-color:#FF5B00"
         id="stop131" />
    </radialGradient>
    <radialGradient
       id="XMLID_12_"
       cx="117.2104"
       cy="125.4971"
       r="85.341904"
       fx="117.2104"
       fy="125.4971"
       gradientTransform="matrix(0.9747,0.0253,0.0253,0.9747,-2.5816,-0.7475)"
       gradientUnits="userSpaceOnUse">
      <stop
         offset="0"
         style="stop-color:#FFDE9A"
         id="stop138" />
      <stop
         offset="1"
         style="stop-color:#FF5B00"
         id="stop140" />
    </radialGradient>
    <radialGradient
       id="XMLID_13_"
       cx="136.2964"
       cy="-17.7227"
       r="18.082701"
       fx="136.2964"
       fy="-17.7227"
       gradientTransform="matrix(0.7071,0.7071,-0.7071,0.7071,-31.4738,24.4267)"
       gradientUnits="userSpaceOnUse">
      <stop
         offset="0"
         style="stop-color:#FFBB9D"
         id="stop147" />
      <stop
         offset="1"
         style="stop-color:#FF0000"
         id="stop149" />
    </radialGradient>
    <linearGradient
       id="XMLID_14_"
       gradientUnits="userSpaceOnUse"
       x1="138.8931"
       y1="-36.129902"
       x2="138.8931"
       y2="-0.97549999"
       gradientTransform="matrix(0.7071,0.7071,-0.7071,0.7071,-31.4738,24.4267)">
      <stop
         offset="0"
         style="stop-color:#FFFFFF"
         id="stop156" />
      <stop
         offset="1"
         style="stop-color:#FFFFFF;stop-opacity:0"
         id="stop158" />
    </linearGradient>
    <linearGradient
       id="XMLID_15_"
       gradientUnits="userSpaceOnUse"
       x1="125.1421"
       y1="-56.756302"
       x2="137.2646"
       y2="-53.175098"
       gradientTransform="matrix(0.7071,0.7071,-0.7071,0.7071,-31.4738,24.4267)">
      <stop
         offset="0.0337"
         style="stop-color:#FFFFFF"
         id="stop177" />
      <stop
         offset="1"
         style="stop-color:#B3B3B3"
         id="stop179" />
    </linearGradient>
    <linearGradient
       id="XMLID_16_"
       gradientUnits="userSpaceOnUse"
       x1="130.46919"
       y1="-72.559097"
       x2="131.0201"
       y2="-56.855701"
       gradientTransform="matrix(0.7071,0.7071,-0.7071,0.7071,-31.4738,24.4267)">
      <stop
         offset="0"
         style="stop-color:#9E9E9E"
         id="stop186" />
      <stop
         offset="1"
         style="stop-color:#616161"
         id="stop188" />
    </linearGradient>
    <linearGradient
       id="XMLID_17_"
       gradientUnits="userSpaceOnUse"
       x1="145.2007"
       y1="-56.756802"
       x2="157.3232"
       y2="-53.175499"
       gradientTransform="matrix(0.7071,0.7071,-0.7071,0.7071,-31.4738,24.4267)">
      <stop
         offset="0.0337"
         style="stop-color:#FFFFFF"
         id="stop198" />
      <stop
         offset="1"
         style="stop-color:#B3B3B3"
         id="stop200" />
    </linearGradient>
    <linearGradient
       id="XMLID_18_"
       gradientUnits="userSpaceOnUse"
       x1="150.5269"
       y1="-72.560097"
       x2="151.0777"
       y2="-56.855801"
       gradientTransform="matrix(0.7071,0.7071,-0.7071,0.7071,-31.4738,24.4267)">
      <stop
         offset="0"
         style="stop-color:#9E9E9E"
         id="stop207" />
      <stop
         offset="1"
         style="stop-color:#616161"
         id="stop209" />
    </linearGradient>
    <linearGradient
       id="XMLID_19_"
       gradientUnits="userSpaceOnUse"
       x1="119.1431"
       y1="83.823196"
       x2="98.813004"
       y2="108.4335">
      <stop
         offset="0"
         style="stop-color:#FFFFFF"
         id="stop218" />
      <stop
         offset="1"
         style="stop-color:#FFFFFF;stop-opacity:0"
         id="stop220" />
    </linearGradient>
    <linearGradient
       id="XMLID_20_"
       gradientUnits="userSpaceOnUse"
       x1="105.0562"
       y1="69.735397"
       x2="84.727501"
       y2="94.344002">
      <stop
         offset="0"
         style="stop-color:#FFFFFF"
         id="stop227" />
      <stop
         offset="1"
         style="stop-color:#FFFFFF;stop-opacity:0"
         id="stop229" />
    </linearGradient>
    <radialGradient
       inkscape:collect="always"
       xlink:href="#XMLID_1_"
       id="radialGradient3904"
       gradientUnits="userSpaceOnUse"
       cx="75.483902"
       cy="140.627"
       fx="75.483902"
       fy="140.627"
       r="36.8578" />
    <linearGradient
       inkscape:collect="always"
       xlink:href="#linearGradient835"
       id="linearGradient3906"
       gradientUnits="userSpaceOnUse"
       gradientTransform="matrix(0.784789,0,0,1.274228,-27.41512,-11.197637)"
       x1="59.09943"
       y1="33.609943"
       x2="95.688896"
       y2="62.299416" />
    <radialGradient
       inkscape:collect="always"
       xlink:href="#XMLID_9_"
       id="radialGradient3908"
       gradientUnits="userSpaceOnUse"
       gradientTransform="translate(-2.9487,-0.3809)"
       cx="114.7007"
       cy="135.1162"
       fx="114.7007"
       fy="135.1162"
       r="61.621799" />
    <radialGradient
       inkscape:collect="always"
       xlink:href="#XMLID_10_"
       id="radialGradient3910"
       gradientUnits="userSpaceOnUse"
       gradientTransform="matrix(0.9747,0.0253,0.0253,0.9747,-2.5816,-0.7475)"
       cx="117.6069"
       cy="121.6768"
       fx="117.6069"
       fy="121.6768"
       r="85.3349" />
    <radialGradient
       inkscape:collect="always"
       xlink:href="#XMLID_11_"
       id="radialGradient3912"
       gradientUnits="userSpaceOnUse"
       gradientTransform="matrix(0.9747,0.0253,0.0253,0.9747,-2.5816,-0.7475)"
       cx="117.2114"
       cy="125.4971"
       fx="117.2114"
       fy="125.4971"
       r="85.350601" />
    <radialGradient
       inkscape:collect="always"
       xlink:href="#XMLID_12_"
       id="radialGradient3914"
       gradientUnits="userSpaceOnUse"
       gradientTransform="matrix(0.9747,0.0253,0.0253,0.9747,-2.5816,-0.7475)"
       cx="117.2104"
       cy="125.4971"
       fx="117.2104"
       fy="125.4971"
       r="85.341904" />
    <radialGradient
       inkscape:collect="always"
       xlink:href="#XMLID_13_"
       id="radialGradient3916"
       gradientUnits="userSpaceOnUse"
       gradientTransform="matrix(0.7071,0.7071,-0.7071,0.7071,-31.4738,24.4267)"
       cx="136.2964"
       cy="-17.7227"
       fx="136.2964"
       fy="-17.7227"
       r="18.082701" />
    <linearGradient
       inkscape:collect="always"
       xlink:href="#XMLID_14_"
       id="linearGradient3918"
       gradientUnits="userSpaceOnUse"
       gradientTransform="matrix(0.7071,0.7071,-0.7071,0.7071,-31.4738,24.4267)"
       x1="138.8931"
       y1="-36.129902"
       x2="138.8931"
       y2="-0.97549999" />
    <linearGradient
       inkscape:collect="always"
       xlink:href="#XMLID_15_"
       id="linearGradient3920"
       gradientUnits="userSpaceOnUse"
       gradientTransform="matrix(0.7071,0.7071,-0.7071,0.7071,-31.4738,24.4267)"
       x1="125.1421"
       y1="-56.756302"
       x2="137.2646"
       y2="-53.175098" />
    <linearGradient
       inkscape:collect="always"
       xlink:href="#XMLID_16_"
       id="linearGradient3922"
       gradientUnits="userSpaceOnUse"
       gradientTransform="matrix(0.7071,0.7071,-0.7071,0.7071,-31.4738,24.4267)"
       x1="130.46919"
       y1="-72.559097"
       x2="131.0201"
       y2="-56.855701" />
    <linearGradient
       inkscape:collect="always"
       xlink:href="#XMLID_17_"
       id="linearGradient3924"
       gradientUnits="userSpaceOnUse"
       gradientTransform="matrix(0.7071,0.7071,-0.7071,0.7071,-31.4738,24.4267)"
       x1="145.2007"
       y1="-56.756802"
       x2="157.3232"
       y2="-53.175499" />
    <linearGradient
       inkscape:collect="always"
       xlink:href="#XMLID_18_"
       id="linearGradient3926"
       gradientUnits="userSpaceOnUse"
       gradientTransform="matrix(0.7071,0.7071,-0.7071,0.7071,-31.4738,24.4267)"
       x1="150.5269"
       y1="-72.560097"
       x2="151.0777"
       y2="-56.855801" />
    <linearGradient
       inkscape:collect="always"
       xlink:href="#XMLID_19_"
       id="linearGradient3928"
       gradientUnits="userSpaceOnUse"
       x1="119.1431"
       y1="83.823196"
       x2="98.813004"
       y2="108.4335" />
    <linearGradient
       inkscape:collect="always"
       xlink:href="#XMLID_20_"
       id="linearGradient3930"
       gradientUnits="userSpaceOnUse"
       x1="105.0562"
       y1="69.735397"
       x2="84.727501"
       y2="94.344002" />
  </defs>
  <sodipodi:namedview
     bordercolor="#666666"
     borderopacity="1.0"
     id="base"
     inkscape:cx="161.40964"
     inkscape:cy="43.161186"
     inkscape:pageopacity="0.0"
     inkscape:pageshadow="2"
     inkscape:window-height="1024"
     inkscape:window-width="1920"
     inkscape:window-x="-2"
     inkscape:window-y="33"
     inkscape:zoom="2.5597265"
     pagecolor="#ffffff"
     inkscape:current-layer="svg1"
     showgrid="true"
     fit-margin-top="0"
     fit-margin-left="0"
     fit-margin-right="0"
     fit-margin-bottom="0"
     inkscape:window-maximized="1">
    <inkscape:grid
       type="xygrid"
       id="grid3597"
       empspacing="5"
       visible="true"
       enabled="true"
       snapvisiblegridlinesonly="true"
       originx="-1.7245102px"
       originy="14.634107px" />
  </sodipodi:namedview>
  <g
     style="font-size:12px"
     id="g7"
     transform="translate(-1.614016,0.05650731)">
    <path
       style="fill:none"
       inkscape:connector-curvature="0"
       id="path9"
       d="m 57.613,76.986 c -3.874,0 -7.025,3.151 -7.025,7.023 v 26.095 c 0,3.873 3.151,7.024 7.025,7.024 h 51.685 c 1.092,0 2.121,-0.257 3.043,-0.703 V 77.689 c -0.922,-0.445 -1.951,-0.703 -3.043,-0.703 H 57.613 z" />
    <radialGradient
       gradientUnits="userSpaceOnUse"
       fy="140.627"
       fx="75.483902"
       r="36.8578"
       cy="140.627"
       cx="75.483902"
       id="radialGradient3485">
      <stop
         id="stop3487"
         style="stop-color:#FFBB9D"
         offset="0" />
      <stop
         id="stop3489"
         style="stop-color:#FF0000"
         offset="1" />
    </radialGradient>
    <path
       inkscape:connector-curvature="0"
       style="fill:url(#radialGradient3904)"
       id="path18"
       d="m 46.573,85.346 v 24.759 c 0,6.086 4.953,11.038 11.04,11.038 h 51.685 c 1.057,0 2.076,-0.158 3.043,-0.437 v -4.28 c -0.922,0.446 -1.951,0.703 -3.043,0.703 H 57.613 c -3.874,0 -7.025,-3.151 -7.025,-7.024 V 85.346 h -4.015 z" />
    <path
       style="fill:#a20000"
       inkscape:connector-curvature="0"
       id="path20"
       d="m 50.588,84.86 h -4.5 v 25.244 c 0,6.354 5.17,11.523 11.524,11.523 h 51.685 c 1.059,0 2.127,-0.153 3.178,-0.455 l 0.35,-0.102 v -5.419 l -0.695,0.337 c -0.898,0.435 -1.852,0.655 -2.832,0.655 H 57.613 c -3.606,0 -6.54,-2.935 -6.54,-6.54 V 84.86 h -0.485 z m -0.485,0.97 c 0,0.933 0,24.274 0,24.274 0,4.141 3.369,7.51 7.51,7.51 h 51.685 c 0.881,0 1.732,-0.2 2.559,-0.506 0,0.854 0,2.624 0,3.183 -0.852,0.215 -1.707,0.367 -2.559,0.367 H 57.613 c -5.82,0 -10.554,-4.734 -10.554,-10.554 0,0 0,-23.342 0,-24.274 0.646,0 2.397,0 3.044,0 z" />
  </g>
  <path
     d="m 10.738192,22.25184 c 2.351916,1.226319 22.368279,5.487805 33.972126,5.226481 16.527417,0.261324 30.313584,-6.049645 32.926824,-7.055749 0,1.433686 -2.3069,10.272919 -2.61324,15.679443 0,5.44754 1.82928,28.414766 2.0906,33.710801 0.86784,6.178195 2.70401,13.861191 4.4425,19.076657 1.82927,3.55389 -23.562905,9.854036 -34.756092,10.452956 C 34.198396,100.1264 7.8636281,94.971363 9.4315718,90.980063 c 0,-3.968347 3.6585372,-13.382717 3.6585372,-19.599303 0.522648,-6.024936 -0.261324,-23.272739 -0.261324,-30.836237 -0.261324,-6.779558 -1.05367,-12.5603 -2.090593,-18.292683 z"
     id="path825"
     sodipodi:nodetypes="ccccccccccc"
     style="fill:#fbd900;fill-opacity:1;fill-rule:evenodd;stroke:#000000;stroke-width:1pt;stroke-linecap:butt;stroke-linejoin:round;stroke-opacity:1"
     inkscape:connector-curvature="0" />
  <path
     d="m 8.9089238,92.025353 c -5.5855697,-1.33105 -7.8790417,10.112997 -1.8292677,12.020907 6.3674249,3.75419 29.7032539,7.05575 39.1986049,6.27178 11.100987,-0.26132 31.192671,-4.4425 35.801381,-8.36237 6.13417,-3.919861 5.46535,-13.066197 0,-12.020897 -3.27856,3.65854 -26.698734,8.885006 -36.585352,9.407656 C 36.271496,100.1264 14.74516,96.816303 8.9089238,92.025353 z"
     id="path827"
     sodipodi:nodetypes="ccccccc"
     style="fill:#fbf3bf;fill-opacity:1;fill-rule:evenodd;stroke:#000000;stroke-width:1pt;stroke-linecap:butt;stroke-linejoin:miter;stroke-opacity:1"
     inkscape:connector-curvature="0" />
  <path
     d="m 75.657852,31.41156 c 1.24474,-3.211218 9.63865,-6.971475 12.36325,-7.515482 4.68683,-1.050639 12.384518,-1.387828 16.763938,4.28009 7.93909,10.323151 6.76227,28.625475 2.86109,34.637709 -2.77614,5.103905 -9.371388,10.281667 -14.636108,11.877622 -5.15036,1.533674 -12.70649,2.660982 -14.33206,3.711621 -0.35081,-1.296349 -1.32702,-7.387829 -1.38094,-9.071225 1.95059,0.128266 7.48902,-0.892705 11.69592,-1.868001 3.90118,-0.898822 6.44965,-3.274137 9.335098,-6.222439 4.9944,-4.699846 4.34393,-21.159082 0.53709,-25.056474 -2.232578,-2.262483 -6.848178,-3.904422 -9.914828,-3.323041 -4.99222,1.031654 -13.67653,7.365529 -13.67653,6.979919 -0.50871,-2.079489 -0.25075,-6.159061 0.38408,-8.430299 z"
     id="path828"
     sodipodi:nodetypes="ccccccccccccc"
     style="fill:#fbf3bf;fill-opacity:1;fill-rule:evenodd;stroke:#000000;stroke-width:1.25;stroke-linejoin:bevel;stroke-dasharray:none"
     inkscape:connector-curvature="0" />
  <path
     d="m 30.29731,35.733623 c 1.655228,1.206553 -1.355207,16.955214 -0.9414,28.131071 0.413807,14.295381 1.443373,23.527896 -0.521629,24.63556 -3.107716,1.674209 -9.900986,-0.135751 -12.045719,-2.420763 -1.273195,-1.50665 1.805838,-10.239735 2.012742,-16.428525 -0.413807,-8.711112 -1.702656,-33.303457 -0.461234,-34.777855 2.252376,-2.053669 9.681301,-1.152463 11.95724,0.860512 z"
     id="path830"
     sodipodi:nodetypes="ccccccc"
     style="fill:#fbe600;fill-opacity:1;fill-rule:evenodd;stroke:#000000;stroke-width:1.25;stroke-linejoin:round;stroke-dasharray:none"
     inkscape:connector-curvature="0" />
  <path
     d="m 38.887449,36.402735 c -1.478272,1.424434 -0.06341,19.624942 -0.06341,22.559034 0.30535,3.808377 -1.101012,27.452542 -0.177092,28.95444 1.84784,2.121884 10.215463,2.441964 13.000543,-0.356436 1.505214,-1.874783 -0.477816,-22.544149 -0.477816,-27.679524 0,-5.510667 1.407174,-22.051957 -0.440666,-23.580318 -2.032624,-2.149336 -8.439279,-3.179579 -11.841561,0.102804 z"
     id="path832"
     sodipodi:nodetypes="ccccccc"
     style="fill:#fbe600;fill-opacity:1;fill-rule:evenodd;stroke:#000000;stroke-width:1pt;stroke-linecap:butt;stroke-linejoin:miter;stroke-opacity:1"
     inkscape:connector-curvature="0" />
  <path
     d="m 58.576073,34.958411 c -1.657782,1.256374 1.179432,15.800228 1.194009,26.982187 0.137654,14.29966 -1.244187,24.662031 0.824061,25.709062 3.267942,1.578373 10.880991,-1.541715 13.000559,-3.890858 1.25233,-1.544634 -1.411353,-10.178634 -2.081995,-16.357493 -0.983825,-8.164301 0.1476,-33.128626 -1.189611,-34.564268 -2.401654,-1.983715 -9.481536,0.0401 -11.747023,2.12137 z"
     id="path833"
     sodipodi:nodetypes="ccccccc"
     style="fill:#fbe600;fill-opacity:1;fill-rule:evenodd;stroke:#000000;stroke-width:1.25;stroke-linejoin:round;stroke-dasharray:none"
     inkscape:connector-curvature="0" />
  <path
     d="m 51.857219,28.486313 c -4.989168,1.108704 -36.587232,-3.141328 -39.72856,-4.804384 0.92392,4.6196 3.141328,45.272081 1.663056,49.891681 0.184784,2.032624 -3.8804642,15.152293 -3.69568,17.924053 17.184912,-68.370085 39.72856,-48.967766 41.761184,-63.01135 z"
     id="path834"
     sodipodi:nodetypes="ccccc"
     style="fill:url(#linearGradient3906);fill-opacity:1;fill-rule:evenodd;stroke:none"
     inkscape:connector-curvature="0" />
  <path
     d="M 8.3022208,92.674943 C 5.2509911,91.777523 3.0971821,99.495343 5.4304761,101.82863 11.173967,104.52089 18.7123,99.495333 43.660593,100.21328 30.91722,99.854313 12.071388,97.341533 8.3022208,92.674943 z"
     id="path839"
     sodipodi:nodetypes="cccc"
     style="fill:url(#linearGradient840);fill-opacity:1;fill-rule:evenodd;stroke:none"
     inkscape:connector-curvature="0" />
  <path
     d="m 76.865152,30.932408 c 4.48711,-4.487103 8.79472,-5.564008 13.99976,-6.461428 8.794718,-2.333293 14.897188,3.769166 16.871508,11.845952 -4.48711,-7.179365 -10.230588,-8.25627 -14.179238,-8.435754 -4.12814,0.717936 -15.79461,7.897301 -16.87151,9.15369 -1.07691,1.256389 -0.71794,-4.128134 0.17948,-6.10246 z"
     id="path841"
     sodipodi:nodetypes="cccccc"
     style="fill:url(#linearGradient842);fill-opacity:1;fill-rule:evenodd;stroke:none"
     inkscape:connector-curvature="0" />
  <path
     d="m 9.6833498,74.705639 c 2.3831882,1.158976 4.2810842,-1.569298 3.4649432,-3.030336 0.91503,0.08658 1.794841,-0.325397 1.794841,-1.794841 0.720441,-0.720442 -0.36461,-1.854351 -0.36461,-2.735722 -0.993537,-0.993537 0.0056,-2.165022 0.0056,-3.725707 0,-1.55349 0.89742,-2.502433 0.89742,-4.128134 0,-2.361126 2.059374,-1.180728 0.897421,-4.666587 1.088188,-0.424548 2.27414,-1.484535 0.89742,-2.692262 2.160112,-0.239518 3.218588,-2.354187 0.538453,-4.666587 4.073437,0 -4.230206,-8.730498 2.692261,-6.999881 2.222046,-0.555511 1.794842,-2.215062 1.794842,-4.307619 2.871746,3.948651 6.895421,2.621276 7.538333,0 1.348589,4.399819 10.589563,2.586908 10.589563,-2.871745 0.179484,6.750206 7.117681,3.404632 8.435753,3.94865 -1.615357,1.866166 1.584051,9.079601 4.307619,9.15369 -6.309674,4.732255 -5.172896,13.001079 2.512778,14.538214 3.8938,0 5.384523,-3.278525 5.384523,-7.897302 1.256389,2.644739 6.971985,4.279723 6.999881,-0.179484 2.871746,5.544562 6.495929,-1.470369 4.307619,-2.153809 5.02556,1.905681 3.09069,-7.078795 1.25639,-9.15369 2.87175,-0.914477 1.95672,-7.520728 0.17948,-9.692142 2.62121,2.665153 6.73847,-0.831115 6.28195,-5.922976 1.22795,3.467057 9.14748,-0.368278 3.76916,-8.435754 0,-1.545134 -4.4871,-1.74882 -5.564,-0.538452 C 78.28558,11.307016 74.20126,7.0610207 71.301105,8.1379256 73.100112,5.4456637 62.253106,3.2390297 59.993647,7.5994736 61.344178,1.8986527 46.183124,-1.7337004 45.814402,1.4970137 c -1.748227,-2.512778 -11.77086,-2.558566 -14.717697,6.2819439 0,-4.8605889 -16.308564,-6.99987988 -15.974087,0.358968 -3.489913,-2.4330629 -9.2273679,0.358968 -8.7947219,3.2307134 -5.38452402,-2.7033864 -7.842024,9.56111 -3.410198,10.230595 -2.51277802,2.262401 -2.69226202,11.310984 0.538452,11.128016 -1.974325,2.129718 -0.89742,8.436584 1.256389,8.615237 -1.679432,2.320552 0.245705,13.673904 7.1793649,11.845952 0,2.523441 0.70877,4.694085 -0.179484,7.358849 0,1.545456 -0.897421,2.852833 -0.897421,4.487103 0.372059,0.744117 -1.2597062,2.724438 0.538452,3.94865 -4.2167289,1.759277 -3.3023829,4.464214 -1.6701012,5.722598 z"
     id="path844"
     sodipodi:nodetypes="cccccccccccccccccccccccccccccccccccccc"
     style="fill:#ffffff;fill-opacity:1;fill-rule:evenodd;stroke:#000000;stroke-width:1pt;stroke-linecap:butt;stroke-linejoin:round;stroke-opacity:1"
     inkscape:connector-curvature="0" />
  <path
     d="m 9.5921318,29.939555 c -1.5094157,-1.649384 1.2213472,-7.039559 4.2427502,-6.762192 0.688613,-2.474077 2.58594,-2.892705 4.6875,-2.1875 -1.047665,-2.044932 1.503104,-3.991708 3.75,-1.681788 1.517087,-2.621829 4.677545,-4.645141 6.356327,-3.231327 -0.131924,-3.373019 6.063269,-6.7936254 8.331173,-3.836885 0,0.606002 -0.362665,1.875 0,1.875"
     id="path846"
     sodipodi:nodetypes="ccccccc"
     style="fill:none;stroke:#000000;stroke-width:1pt;stroke-linecap:butt;stroke-linejoin:round;stroke-opacity:1"
     inkscape:connector-curvature="0" />
  <path
     d="m 46.647382,19.739863 c -0.10381,-4.72093 14.009382,-8.590646 11.25,-0.3125 1.269222,-0.634611 6.875,-1.299023 5.844134,2.313269 4.123463,-0.465579 10.390316,1.104743 6.662347,6.688269 2.395929,1.805687 1.330404,6.69592 -0.318981,5.060962"
     id="path847"
     sodipodi:nodetypes="ccccc"
     style="fill:none;stroke:#000000;stroke-width:1pt;stroke-linecap:butt;stroke-linejoin:round;stroke-opacity:1"
     inkscape:connector-curvature="0" />
  <g
     style="font-size:12px"
     id="g91"
     transform="translate(-1.614016,0.05650731)">
    <path
       style="fill:none"
       inkscape:connector-curvature="0"
       id="path93"
       d="M 108.733,85.459 C 98.661,75.368 85.897,71.717 80.284,77.319 c -1.682,1.68 -2.529,4.003 -2.627,6.702 0.453,-1.247 1.135,-2.354 2.055,-3.272 5.773,-5.762 18.76,-2.112 29.01,8.153 6.1,6.111 9.852,13.187 10.674,19.131 0.616,-6.393 -3.298,-15.197 -10.663,-22.574 z" />
    <g
       id="g95">
      <radialGradient
         gradientUnits="userSpaceOnUse"
         gradientTransform="translate(-2.9487,-0.3809)"
         fy="135.1162"
         fx="114.7007"
         r="61.621799"
         cy="135.1162"
         cx="114.7007"
         id="radialGradient3496">
        <stop
           id="stop3498"
           style="stop-color:#FFBB9D"
           offset="0" />
        <stop
           id="stop3500"
           style="stop-color:#FF0000"
           offset="1" />
      </radialGradient>
      <path
         inkscape:connector-curvature="0"
         style="fill:url(#radialGradient3908)"
         id="path104"
         d="m 109.84,82.698 c 11.809,11.83 15.701,27.092 8.695,34.087 -7.008,6.994 -35.01,15.821 -46.82,3.991 -11.808,-11.831 -2.953,-39.839 4.053,-46.834 7.008,-6.995 22.262,-3.075 34.072,8.756 z" />
      <path
         style="fill:#a20000"
         inkscape:connector-curvature="0"
         id="path106"
         d="m 75.483,73.656 c -7.178,7.167 -15.979,35.458 -4.053,47.404 11.91,11.933 40.211,3.177 47.391,-3.99 2.354,-2.35 3.598,-5.706 3.604,-9.708 C 122.431,99.578 117.72,90.019 110.126,82.413 98.178,70.442 82.637,66.515 75.483,73.656 z m -3.481,46.835 c -11.613,-11.634 -2.986,-39.236 4.053,-46.263 6.838,-6.826 21.867,-2.899 33.5,8.755 7.445,7.459 12.068,16.802 12.059,24.379 -0.002,3.782 -1.166,6.941 -3.365,9.136 -7.04,7.027 -34.649,15.609 -46.247,3.993 z" />
      <radialGradient
         gradientUnits="userSpaceOnUse"
         gradientTransform="matrix(0.9747,0.0253,0.0253,0.9747,-2.5816,-0.7475)"
         fy="121.6768"
         fx="117.6069"
         r="85.3349"
         cy="121.6768"
         cx="117.6069"
         id="radialGradient3504">
        <stop
           id="stop3506"
           style="stop-color:#FFDE9A"
           offset="0" />
        <stop
           id="stop3508"
           style="stop-color:#FF5B00"
           offset="0.7135" />
      </radialGradient>
      <path
         inkscape:connector-curvature="0"
         style="fill:url(#radialGradient3910)"
         id="path115"
         d="m 108.176,84.358 c 10.248,10.265 13.875,23.259 8.104,29.021 -5.773,5.763 -18.762,2.111 -29.008,-8.154 -10.25,-10.266 -13.877,-23.259 -8.104,-29.02 5.772,-5.763 18.76,-2.112 29.008,8.153 z" />
      <radialGradient
         gradientUnits="userSpaceOnUse"
         gradientTransform="matrix(0.9747,0.0253,0.0253,0.9747,-2.5816,-0.7475)"
         fy="125.4971"
         fx="117.2114"
         r="85.350601"
         cy="125.4971"
         cx="117.2114"
         id="radialGradient3511">
        <stop
           id="stop3513"
           style="stop-color:#FFDE9A"
           offset="0" />
        <stop
           id="stop3515"
           style="stop-color:#FFD994"
           offset="0.132" />
        <stop
           id="stop3517"
           style="stop-color:#FFCC85"
           offset="0.3006" />
        <stop
           id="stop3519"
           style="stop-color:#FFB56A"
           offset="0.4891" />
        <stop
           id="stop3521"
           style="stop-color:#FF9646"
           offset="0.6921" />
        <stop
           id="stop3523"
           style="stop-color:#FF6F17"
           offset="0.9045" />
        <stop
           id="stop3525"
           style="stop-color:#FF5B00"
           offset="1" />
      </radialGradient>
      <path
         inkscape:connector-curvature="0"
         style="fill:url(#radialGradient3912)"
         id="path134"
         d="m 78.881,79.919 c -0.922,0.92 -1.602,2.026 -2.055,3.272 -0.229,6.314 3.658,14.694 10.715,21.763 10.074,10.091 22.838,13.742 28.453,8.14 1.51,-1.508 2.344,-3.537 2.572,-5.892 C 117.744,101.261 113.99,94.182 107.89,88.073 97.643,77.808 84.655,74.157 78.881,79.919 z" />
      <radialGradient
         gradientUnits="userSpaceOnUse"
         gradientTransform="matrix(0.9747,0.0253,0.0253,0.9747,-2.5816,-0.7475)"
         fy="125.4971"
         fx="117.2104"
         r="85.341904"
         cy="125.4971"
         cx="117.2104"
         id="radialGradient3528">
        <stop
           id="stop3530"
           style="stop-color:#FFDE9A"
           offset="0" />
        <stop
           id="stop3532"
           style="stop-color:#FF5B00"
           offset="1" />
      </radialGradient>
      <path
         inkscape:connector-curvature="0"
         style="fill:url(#radialGradient3914)"
         id="path143"
         d="m 116.565,113.665 c 0.979,-0.976 1.689,-2.158 2.156,-3.49 0.037,-0.951 -0.012,-1.942 -0.154,-2.973 -0.229,2.354 -1.062,4.384 -2.572,5.892 -5.615,5.603 -18.379,1.951 -28.453,-8.14 -7.057,-7.068 -10.943,-15.448 -10.715,-21.763 -0.316,0.872 -0.52,1.813 -0.617,2.811 0.805,6.07 4.598,13.29 10.791,19.493 10.388,10.407 23.65,14.073 29.564,8.17 z" />
      <radialGradient
         gradientUnits="userSpaceOnUse"
         gradientTransform="matrix(0.7071,0.7071,-0.7071,0.7071,-31.4738,24.4267)"
         fy="-17.7227"
         fx="136.2964"
         r="18.082701"
         cy="-17.7227"
         cx="136.2964"
         id="radialGradient3535">
        <stop
           id="stop3537"
           style="stop-color:#FFBB9D"
           offset="0" />
        <stop
           id="stop3539"
           style="stop-color:#FF0000"
           offset="1" />
      </radialGradient>
      <path
         inkscape:connector-curvature="0"
         style="fill:url(#radialGradient3916)"
         id="path152"
         d="m 118.721,110.175 c 2.361,-6.727 -1.604,-17.402 -10.273,-26.087 -10.389,-10.407 -23.65,-14.071 -29.566,-8.169 -2.387,2.384 -3.215,5.97 -2.672,10.083 0.805,6.07 4.598,13.29 10.791,19.493 10.389,10.407 23.65,14.073 29.564,8.17 0.978,-0.976 1.689,-2.158 2.156,-3.49 z M 87.542,104.954 C 80.485,97.886 76.599,89.506 76.827,83.191 c 0.098,-2.698 0.945,-5.022 2.627,-6.701 5.613,-5.603 18.377,-1.952 28.451,8.14 7.363,7.377 11.277,16.181 10.662,22.572 -0.229,2.354 -1.062,4.384 -2.572,5.892 -5.616,5.602 -18.379,1.951 -28.453,-8.14 z" />
      <linearGradient
         gradientTransform="matrix(0.7071,0.7071,-0.7071,0.7071,-31.4738,24.4267)"
         y2="-0.97549999"
         x2="138.8931"
         y1="-36.129902"
         x1="138.8931"
         gradientUnits="userSpaceOnUse"
         id="linearGradient3542">
        <stop
           id="stop3544"
           style="stop-color:#FFFFFF"
           offset="0" />
        <stop
           id="stop3546"
           style="stop-color:#FFFFFF;stop-opacity:0"
           offset="1" />
      </linearGradient>
      <path
         inkscape:connector-curvature="0"
         style="fill:url(#linearGradient3918)"
         id="path161"
         d="M 84.209,105.693 C 81.25,102.34 78.918,98.714 77.232,95.068 76.48,93.444 75.847,91.815 75.361,90.205 c -1.609,-5.341 -1.74,-10.47 -0.23,-14.551 -0.279,0.264 -0.551,0.539 -0.801,0.84 -3.24,3.882 -3.332,9.973 -0.857,16.419 -3.127,5.175 -4.82,12.014 -4.352,19.404 0.07,1.102 0.189,2.181 0.35,3.241 0.158,-7.245 2.393,-13.767 5.967,-18.426 2.096,3.835 5.033,7.655 8.709,11.083 8.768,8.178 19.113,11.71 26.027,9.575 -7.691,1.443 -17.939,-3.018 -25.965,-12.097 z"
         a:adobe-blending-mode="screen" />
    </g>
    <g
       id="g164">
      <path
         style="opacity:0.2"
         inkscape:connector-curvature="0"
         id="path166"
         d="m 101.62,99.436 c -1.795,0.589 -1.805,2.643 -0.02,4.576 1.787,1.935 4.699,3.027 6.496,2.438 l 13.645,-4.484 c -0.631,-2.65 -1.688,-5.394 -3.123,-8.116 l -16.998,5.586 z" />
      <path
         style="opacity:0.2"
         inkscape:connector-curvature="0"
         id="path168"
         d="m 88.004,89.285 c 1.785,1.935 4.699,3.027 6.494,2.438 l 18.561,-6.099 c -0.924,-1.1 -1.898,-2.175 -2.934,-3.211 -1.309,-1.313 -2.666,-2.523 -4.047,-3.639 l -18.057,5.934 c -1.796,0.59 -1.804,2.645 -0.017,4.577 z" />
    </g>
    <g
       id="g171">
      <g
         id="g173">
        <linearGradient
           gradientTransform="matrix(0.7071,0.7071,-0.7071,0.7071,-31.4738,24.4267)"
           y2="-53.175098"
           x2="137.2646"
           y1="-56.756302"
           x1="125.1421"
           gradientUnits="userSpaceOnUse"
           id="linearGradient3554">
          <stop
             id="stop3556"
             style="stop-color:#FFFFFF"
             offset="0.0337" />
          <stop
             id="stop3558"
             style="stop-color:#B3B3B3"
             offset="1" />
        </linearGradient>
        <path
           inkscape:connector-curvature="0"
           style="fill:url(#linearGradient3920)"
           id="path182"
           d="m 93.325,91.191 c -1.43,1.431 -3.973,1.206 -5.682,-0.502 -1.707,-1.707 -1.932,-4.251 -0.502,-5.682 l 19.748,-19.748 c 1.43,-1.431 3.973,-1.206 5.682,0.501 1.709,1.709 1.932,4.252 0.502,5.684 L 93.325,91.191 z" />
        <linearGradient
           gradientTransform="matrix(0.7071,0.7071,-0.7071,0.7071,-31.4738,24.4267)"
           y2="-56.855701"
           x2="131.0201"
           y1="-72.559097"
           x1="130.46919"
           gradientUnits="userSpaceOnUse"
           id="linearGradient3561">
          <stop
             id="stop3563"
             style="stop-color:#9E9E9E"
             offset="0" />
          <stop
             id="stop3565"
             style="stop-color:#616161"
             offset="1" />
        </linearGradient>
        <path
           inkscape:connector-curvature="0"
           style="fill:url(#linearGradient3922)"
           id="path191"
           d="M 106.602,64.974 86.856,84.723 c -1.586,1.585 -1.361,4.391 0.502,6.253 1.861,1.862 4.666,2.088 6.252,0.502 L 113.358,71.73 c 1.586,-1.586 1.361,-4.391 -0.502,-6.254 -1.863,-1.863 -4.666,-2.088 -6.254,-0.502 z M 87.428,85.293 107.174,65.546 c 1.271,-1.271 3.564,-1.046 5.111,0.502 1.547,1.547 1.771,3.84 0.502,5.111 L 93.04,90.907 c -1.27,1.27 -3.562,1.044 -5.109,-0.502 -1.55,-1.548 -1.774,-3.841 -0.503,-5.112 z" />
      </g>
      <g
         id="g194">
        <linearGradient
           gradientTransform="matrix(0.7071,0.7071,-0.7071,0.7071,-31.4738,24.4267)"
           y2="-53.175499"
           x2="157.3232"
           y1="-56.756802"
           x1="145.2007"
           gradientUnits="userSpaceOnUse"
           id="linearGradient3569">
          <stop
             id="stop3571"
             style="stop-color:#FFFFFF"
             offset="0.0337" />
          <stop
             id="stop3573"
             style="stop-color:#B3B3B3"
             offset="1" />
        </linearGradient>
        <path
           inkscape:connector-curvature="0"
           style="fill:url(#linearGradient3924)"
           id="path203"
           d="m 107.506,105.375 c -1.43,1.43 -3.973,1.204 -5.682,-0.503 -1.707,-1.708 -1.932,-4.251 -0.502,-5.682 L 121.07,79.442 c 1.432,-1.431 3.975,-1.206 5.684,0.502 1.707,1.707 1.932,4.251 0.502,5.683 l -19.75,19.748 z" />
        <linearGradient
           gradientTransform="matrix(0.7071,0.7071,-0.7071,0.7071,-31.4738,24.4267)"
           y2="-56.855801"
           x2="151.0777"
           y1="-72.560097"
           x1="150.5269"
           gradientUnits="userSpaceOnUse"
           id="linearGradient3576">
          <stop
             id="stop3578"
             style="stop-color:#9E9E9E"
             offset="0" />
          <stop
             id="stop3580"
             style="stop-color:#616161"
             offset="1" />
        </linearGradient>
        <path
           inkscape:connector-curvature="0"
           style="fill:url(#linearGradient3926)"
           id="path212"
           d="m 120.786,79.156 -19.748,19.749 c -1.586,1.585 -1.359,4.39 0.502,6.253 1.863,1.861 4.668,2.087 6.254,0.502 l 19.748,-19.747 c 1.586,-1.587 1.361,-4.392 -0.502,-6.255 -1.864,-1.862 -4.668,-2.087 -6.254,-0.502 z m -19.178,20.321 19.75,-19.749 c 1.27,-1.271 3.562,-1.045 5.109,0.502 1.547,1.547 1.773,3.841 0.502,5.111 l -19.748,19.748 c -1.27,1.27 -3.562,1.045 -5.111,-0.503 -1.547,-1.547 -1.772,-3.84 -0.502,-5.109 z" />
      </g>
    </g>
    <linearGradient
       y2="108.4335"
       x2="98.813004"
       y1="83.823196"
       x1="119.1431"
       gradientUnits="userSpaceOnUse"
       id="linearGradient3583">
      <stop
         id="stop3585"
         style="stop-color:#FFFFFF"
         offset="0" />
      <stop
         id="stop3587"
         style="stop-color:#FFFFFF;stop-opacity:0"
         offset="1" />
    </linearGradient>
    <path
       inkscape:connector-curvature="0"
       style="fill:url(#linearGradient3928)"
       id="path223"
       d="m 104.633,102.317 c -0.697,0.696 -1.826,0.696 -2.523,0 -0.695,-0.696 -0.695,-1.826 0,-2.522 l 17.654,-17.653 c 0.697,-0.696 1.826,-0.696 2.523,0.001 0.695,0.696 0.695,1.826 0,2.521 l -17.654,17.653 z"
       a:adobe-blending-mode="screen" />
    <linearGradient
       y2="94.344002"
       x2="84.727501"
       y1="69.735397"
       x1="105.0562"
       gradientUnits="userSpaceOnUse"
       id="linearGradient3590">
      <stop
         id="stop3592"
         style="stop-color:#FFFFFF"
         offset="0" />
      <stop
         id="stop3594"
         style="stop-color:#FFFFFF;stop-opacity:0"
         offset="1" />
    </linearGradient>
    <path
       inkscape:connector-curvature="0"
       style="fill:url(#linearGradient3930)"
       id="path232"
       d="m 90.545,88.229 c -0.697,0.697 -1.824,0.697 -2.521,0 -0.697,-0.696 -0.697,-1.825 0,-2.522 l 17.654,-17.653 c 0.695,-0.697 1.824,-0.697 2.52,0 0.697,0.697 0.697,1.826 0,2.521 L 90.545,88.229 z"
       a:adobe-blending-mode="screen" />
  </g>
</svg>
